\relax 
\providecommand\hyper@newdestlabel[2]{}
\providecommand\HyperFirstAtBeginDocument{\AtBeginDocument}
\HyperFirstAtBeginDocument{\ifx\hyper@anchor\@undefined
\global\let\oldcontentsline\contentsline
\gdef\contentsline#1#2#3#4{\oldcontentsline{#1}{#2}{#3}}
\global\let\oldnewlabel\newlabel
\gdef\newlabel#1#2{\newlabelxx{#1}#2}
\gdef\newlabelxx#1#2#3#4#5#6{\oldnewlabel{#1}{{#2}{#3}}}
\AtEndDocument{\ifx\hyper@anchor\@undefined
\let\contentsline\oldcontentsline
\let\newlabel\oldnewlabel
\fi}
\fi}
\global\let\hyper@last\relax 
\gdef\HyperFirstAtBeginDocument#1{#1}
\providecommand\HyField@AuxAddToFields[1]{}
\providecommand\HyField@AuxAddToCoFields[2]{}
\citation{*}
\select@language{croatian}
\@writefile{toc}{\select@language{croatian}}
\@writefile{lof}{\select@language{croatian}}
\@writefile{lot}{\select@language{croatian}}
\citation{mepewb}
\citation{wp_gdp}
\@writefile{toc}{\contentsline {chapter}{\numberline {1}Uvod}{1}{chapter.1}}
\@writefile{lof}{\addvspace {10\p@ }}
\@writefile{lot}{\addvspace {10\p@ }}
\citation{ieppmhw}
\@writefile{toc}{\contentsline {chapter}{\numberline {2}Ograni\IeC {\v c}enja BDP-a kao mjere napretka i dobrobiti}{2}{chapter.2}}
\@writefile{lof}{\addvspace {10\p@ }}
\@writefile{lot}{\addvspace {10\p@ }}
\@writefile{toc}{\contentsline {chapter}{\numberline {3}Svojstva dobrih metrika napretka}{4}{chapter.3}}
\@writefile{lof}{\addvspace {10\p@ }}
\@writefile{lot}{\addvspace {10\p@ }}
\citation{ieppmhw}
\@writefile{toc}{\contentsline {chapter}{\numberline {4}Alternativni pokazatelji dru\IeC {\v s}tvenog i ekonomkog napretka}{7}{chapter.4}}
\@writefile{lof}{\addvspace {10\p@ }}
\@writefile{lot}{\addvspace {10\p@ }}
\@writefile{toc}{\contentsline {section}{\numberline {4.1}Human Development Index (HDI)}{7}{section.4.1}}
\citation{ieppmhw,wp_gpi}
\citation{wp_gpi}
\@writefile{toc}{\contentsline {section}{\numberline {4.2}Genuine Progess Indicator (GPI)}{9}{section.4.2}}
\citation{ieppmhw}
\@writefile{lof}{\contentsline {figure}{\numberline {4.1}{\ignorespaces Usporedba BDP-a i GPI-a po glavi stanovnika u SAD-u u drugoj polovici 20. stolje\IeC {\'c}a\relax }}{10}{figure.caption.2}}
\providecommand*\caption@xref[2]{\@setref\relax\@undefined{#1}}
\newlabel{fig:GDPvsGPI}{{4.1}{10}{Usporedba BDP-a i GPI-a po glavi stanovnika u SAD-u u drugoj polovici 20. stoljeća\relax }{figure.caption.2}{}}
\@writefile{toc}{\contentsline {section}{\numberline {4.3}Index of Sustainable Economic Welfare (ISEW)}{11}{section.4.3}}
\bibdata{literatura}
\@writefile{toc}{\contentsline {chapter}{\numberline {5}Zaklju\IeC {\v c}ak}{12}{chapter.5}}
\@writefile{lof}{\addvspace {10\p@ }}
\@writefile{lot}{\addvspace {10\p@ }}
\bibcite{ieppmhw}{{1}{}{{}}{{}}}
\bibcite{mepewb}{{2}{}{{}}{{}}}
\bibcite{wp_bmep}{{3}{}{{}}{{}}}
\bibcite{wp_gpi}{{4}{}{{}}{{}}}
\bibcite{wp_gdp}{{5}{}{{}}{{}}}
\bibcite{wp_hdi}{{6}{}{{}}{{}}}
\bibstyle{plain}
\providecommand\NAT@force@numbers{}\NAT@force@numbers
\@writefile{toc}{\contentsline {chapter}{\numberline {6}Literatura}{13}{chapter.6}}
\@writefile{lof}{\addvspace {10\p@ }}
\@writefile{lot}{\addvspace {10\p@ }}
